…
---

#### **2. Preparación de datos.**
Importamos nuestros datos mediante el botón **import** o bien mediante la función read_excel() del paquete **readxl**. En este caso trabajaremos con la base de datos `Tabla_camelida.xlsx`. 


``` r
camelidos <- read_excel("~/Desktop/work/0_Cuantitativa_2026/ArqCuantitativa2026/datos/Tabla camelida.xlsx")
camelidos
```

```
## # A tibble: 33 × 3
##    Taxon Largo Ancho
##    <chr> <dbl> <dbl>
##  1 LLAMA  80.3  35.4
##  2 LLAMA  71.6  21.2
##  3 LLAMA  70.9  22.0
##  4 LLAMA  70.6  22.3
##  5 LLAMA  69.1  22.7
##  6 LLAMA  68.7  20.8
##  7 LLAMA  67.8  20  
##  8 LLAMA  66.6  21  
##  9 LLAMA  65.9  20.3
## 10 LLAMA  65.8  21.2
## # ℹ 23 more rows
```
…
